<?xml version="1.0" encoding="UTF-8" standalone="no"?>
<svg width="103px" height="21px" viewBox="0 0 103 21" version="1.1" xmlns="http://www.w3.org/2000/svg" xmlns:xlink="http://www.w3.org/1999/xlink" xmlns:sketch="http://www.bohemiancoding.com/sketch/ns">
    <title>logo-footer</title>
    <defs></defs>
    <g id="Article" stroke="none" stroke-width="1" fill="none" fill-rule="evenodd" sketch:type="MSPage">
        <g id="Desktop" sketch:type="MSArtboardGroup" transform="translate(-549.000000, -2643.000000)" fill="#FFFFFF">
            <g id="footer" sketch:type="MSLayerGroup" transform="translate(0.000000, 2602.000000)">
                <path d="M561.539934,47.2709961 C562.764549,47.9477573 563.724012,48.8896424 564.418352,50.0966797 C565.112691,51.303717 565.459855,52.6630784 565.459855,54.1748047 C565.459855,55.1005906 565.328021,55.9106411 565.064348,56.6049805 C564.800674,57.2993199 564.433002,57.838377 563.96132,58.222168 C563.489638,58.605959 562.940327,58.7978516 562.313371,58.7978516 C561.786025,58.7978516 561.345111,58.657228 560.990617,58.3759766 C560.636123,58.0947252 560.435442,57.6904323 560.388566,57.1630859 L560.370988,56.5742188 C560.013565,57.1953156 559.524312,57.6772444 558.903215,58.0200195 C558.282118,58.3627947 557.593648,58.5341797 556.837785,58.5341797 C556.046766,58.5341797 555.321675,58.3481464 554.662492,57.9760742 C554.003309,57.604002 553.48183,57.0869174 553.098039,56.4248047 C552.714248,55.762692 552.522355,55.0126995 552.522355,54.1748047 C552.522355,53.3486287 552.6996,52.5986362 553.054094,51.9248047 C553.408588,51.2509732 553.9037,50.7192402 554.539445,50.3295898 C555.175191,49.9399395 555.900281,49.7451172 556.714738,49.7451172 C557.253803,49.7451172 557.757705,49.8359366 558.226457,50.0175781 C558.695209,50.1992197 559.089248,50.4306627 559.408586,50.7119141 C559.727923,50.9931655 559.952042,51.271483 560.080949,51.546875 L560.080949,49.8945313 L561.416887,49.8945313 L561.416887,56.6269531 C561.416887,57.0136738 561.512101,57.3081045 561.702531,57.5102539 C561.892962,57.7124034 562.137588,57.8134766 562.436418,57.8134766 C562.793842,57.8134766 563.123428,57.6596695 563.425187,57.3520508 C563.726947,57.0444321 563.962784,56.6181668 564.132707,56.0732422 C564.30263,55.5283176 564.38759,54.90723 564.38759,54.2099609 C564.38759,52.9150326 564.096089,51.7490286 563.513078,50.7119141 C562.930067,49.6747995 562.106833,48.8588897 561.043352,48.2641602 C559.97987,47.6694306 558.765526,47.3720703 557.400285,47.3720703 C556.0702,47.3720703 554.858787,47.6723603 553.766008,48.2729492 C552.673229,48.8735382 551.814839,49.6953073 551.190812,50.7382813 C550.566786,51.7812552 550.254777,52.9384702 550.254777,54.2099609 C550.254777,55.4580141 550.555067,56.5800731 551.155656,57.5761719 C551.756245,58.5722706 552.583874,59.3530245 553.638566,59.918457 C554.693259,60.4838895 555.868052,60.7666016 557.16298,60.7666016 C557.713764,60.7666016 558.305555,60.6787118 558.938371,60.5029297 C559.571187,60.3271476 560.107314,60.0839859 560.54677,59.7734375 L561.056535,60.7841797 C560.564345,61.1181657 559.952047,61.3876943 559.219621,61.5927734 C558.487196,61.7978526 557.801656,61.9003906 557.16298,61.9003906 C555.651254,61.9003906 554.286033,61.5664096 553.067277,60.8984375 C551.848521,60.2304654 550.891988,59.3120176 550.197648,58.1430664 C549.503309,56.9741152 549.156145,55.6630932 549.156145,54.2099609 C549.156145,52.7216722 549.516492,51.3725646 550.237199,50.1625977 C550.957906,48.9526307 551.94813,47.9990269 553.207902,47.3017578 C554.467674,46.6044887 555.865121,46.2558594 557.400285,46.2558594 C558.935449,46.2558594 560.315318,46.5942349 561.539934,47.2709961 L561.539934,47.2709961 Z M555.400773,51.4941406 C554.94667,51.7578138 554.593646,52.1181618 554.341691,52.5751953 C554.089737,53.0322288 553.963762,53.5419894 553.963762,54.1044922 C553.963762,54.6787138 554.089737,55.2031226 554.341691,55.6777344 C554.593646,56.1523461 554.949599,56.5273424 555.409562,56.8027344 C555.869526,57.0781264 556.38954,57.2158203 556.969621,57.2158203 C557.555562,57.2158203 558.07997,57.081056 558.542863,56.8115234 C559.005756,56.5419908 559.366104,56.1699242 559.623918,55.6953125 C559.881732,55.2207008 560.010637,54.6962919 560.010637,54.1220703 C560.010637,53.5595675 559.881732,53.0468773 559.623918,52.5839844 C559.366104,52.1210914 559.005756,51.7578138 558.542863,51.4941406 C558.07997,51.2304674 557.549702,51.0986328 556.952043,51.0986328 C556.371962,51.0986328 555.854877,51.2304674 555.400773,51.4941406 L555.400773,51.4941406 Z M568.244559,59 L568.244559,42.224 L571.988559,42.224 L571.988559,55.664 L579.140559,55.664 L579.140559,59 L568.244559,59 Z M581.876559,59 L581.876559,42.224 L585.620559,42.224 L585.620559,55.664 L592.772559,55.664 L592.772559,59 L581.876559,59 Z M607.604559,42.224 L607.604559,45.56 L599.252559,45.56 L599.252559,49.016 L606.764559,49.016 L606.764559,52.208 L599.252559,52.208 L599.252559,55.688 L607.868559,55.688 L607.868559,59 L595.508559,59 L595.508559,42.224 L607.604559,42.224 Z M616.436559,51.872 L619.412559,42.224 L623.324559,42.224 L626.276559,51.872 L629.612559,42.224 L633.668559,42.224 L627.812559,59 L625.028559,59 L621.356559,47.336 L617.708559,59 L614.924559,59 L609.068559,42.224 L613.124559,42.224 L616.436559,51.872 Z M651.388559,50.504 C651.388559,52.6320106 650.740565,54.4759922 649.444559,56.036 C648.148552,57.5960078 646.484569,58.575998 644.452559,58.976 L644.452559,61.808 L640.708559,61.808 L640.708559,58.976 C638.676548,58.575998 637.012565,57.5960078 635.716559,56.036 C634.420552,54.4759922 633.772559,52.6320106 633.772559,50.504 C633.772559,48.0399877 634.62055,45.9800083 636.316559,44.324 C638.012567,42.6679917 640.100546,41.84 642.580559,41.84 C645.060571,41.84 647.14855,42.6679917 648.844559,44.324 C650.540567,45.9800083 651.388559,48.0399877 651.388559,50.504 L651.388559,50.504 Z M640.708559,53.192 L644.452559,53.192 L644.452559,55.52 C645.380563,55.119998 646.132556,54.4680045 646.708559,53.564 C647.284561,52.6599955 647.572559,51.6480056 647.572559,50.528 C647.572559,49.0239925 647.092563,47.7440053 646.132559,46.688 C645.172554,45.6319947 643.992566,45.104 642.592559,45.104 C641.192552,45.104 640.012563,45.6319947 639.052559,46.688 C638.092554,47.7440053 637.612559,49.0239925 637.612559,50.528 C637.612559,51.6480056 637.896556,52.6599955 638.464559,53.564 C639.032561,54.4680045 639.780554,55.119998 640.708559,55.52 L640.708559,53.192 Z" id="logo-footer" sketch:type="MSShapeGroup"></path>
            </g>
        </g>
    </g>
</svg>